# line styles for ColorBrewer RdYlBu
# for use with divering data
# provides 8 colors with red low, pale yellow middle, and blue high
# compatible with gnuplot >=4.2
# author: Anna Schneider

# line styles
set style line 1 lc rgb '#D73027' # red
set style line 2 lc rgb '#F46D43' # orange
set style line 3 lc rgb '#FDAE61' #
set style line 4 lc rgb '#FEE090' # pale orange
set style line 5 lc rgb '#E0F3F8' # pale blue
set style line 6 lc rgb '#ABD9E9' #
set style line 7 lc rgb '#74ADD1' # medium blue
set style line 8 lc rgb '#4575B4' # blue

# palette
set palette defined ( 0 "#4575B4",\
    	    	          1 "#74ADD1",\
		                  2 "#ABD9E9",\
		                  3 "#E0F3F8",\
                      4 "#FEE090",\
                      5 "#FDAE61",\
		                  6 "#F46D43",\
		                  7 "#D73027" )

