\babel@toc {spanish}{}\relax 
\contentsline {chapter}{\numberline {1}Compilación y ejecución}{1}{chapter.1}%
\contentsline {chapter}{\numberline {2} }{2}{chapter.2}%
\contentsline {section}{\numberline {2.1}Descripción teórica}{2}{section.2.1}%
\contentsline {section}{\numberline {2.2}Análisis}{2}{section.2.2}%
\contentsline {chapter}{\numberline {3} }{3}{chapter.3}%
\contentsline {section}{\numberline {3.1}Descripción teórica}{3}{section.3.1}%
\contentsline {section}{\numberline {3.2}Análisis}{3}{section.3.2}%
